<?xml version="1.0" encoding="UTF-8" standalone="no"?>
<!DOCTYPE svg PUBLIC "-//W3C//DTD SVG 1.1//EN" "http://www.w3.org/Graphics/SVG/1.1/DTD/svg11.dtd">
<svg width="100%" height="100%" viewBox="0 0 200 70" version="1.1" xmlns="http://www.w3.org/2000/svg" xmlns:xlink="http://www.w3.org/1999/xlink" xml:space="preserve" xmlns:serif="http://www.serif.com/" style="fill-rule:evenodd;clip-rule:evenodd;stroke-linejoin:round;stroke-miterlimit:2;">
    <g id="path847" transform="matrix(0.375404,0,0,0.388173,-12.5591,-4.06573)">
        <path d="M111.639,172.256C102.286,171.681 93.674,170.519 90.809,169.445C89.521,168.963 90.295,168.895 93.535,169.209C111.223,170.919 142.363,170.549 158.534,168.435C173.539,166.473 185.56,163.408 189.198,160.615C190.488,159.625 190.639,159.623 190.639,160.592C190.639,162.327 185.414,165.737 180.214,167.397C166.421,171.799 137.518,173.847 111.639,172.256L111.639,172.256ZM217.856,170.853L215.037,168.844L217.192,165.485C220.624,160.135 221.073,155.295 221.08,123.601L221.086,94.107L232.684,94.107L232.44,126.393L232.196,158.679L229.571,163.216C226.996,167.667 225.52,169.387 222.289,171.704C220.764,172.798 220.519,172.751 217.856,170.853L217.856,170.853ZM104.233,165.596C71.022,163.149 63.84,161.656 66.326,157.716C68.261,154.648 81.032,150.613 88.565,150.688C92.255,150.725 92.221,150.746 85.843,152.346C82.292,153.238 78.633,154.605 77.713,155.386L76.041,156.804L78.455,157.863C83.821,160.217 94.29,161.288 115.368,161.639C153.296,162.272 181.314,158.884 181.119,153.688C181.082,152.722 181.448,152.314 182.147,152.541C182.744,152.736 183.232,153.625 183.232,154.518C183.232,158.41 171.632,161.957 151.139,164.33C142.725,165.305 111.657,166.143 104.233,165.596ZM253.406,156.995C246.578,155.514 243.312,151.705 243.308,145.218C243.304,140.141 244.61,137.105 247.935,134.458C252.149,131.104 257.717,129.517 266.552,129.154L274.575,128.824L274.575,125.089C274.575,121.946 274.194,120.992 272.17,119.074C269.767,116.796 269.76,116.794 262.09,116.866C257.257,116.91 253.126,117.349 250.937,118.05L247.459,119.164L246.553,116.308C245.491,112.964 245.636,112.833 252.357,111.03C255.515,110.182 259.618,109.815 265.935,109.814C276.519,109.814 280.48,111.089 283.75,115.551C285.639,118.128 285.691,118.643 285.939,137.213L286.193,156.236L281.721,156.236C277.379,156.236 277.235,156.173 276.739,154.071L276.229,151.906L273.551,153.419C267.463,156.857 259.384,158.291 253.406,156.995L253.406,156.995ZM266.767,149.725C268.129,149.275 270.444,148.288 271.91,147.534L274.575,146.161L274.575,140.278L274.575,134.395L268.866,134.845C259.487,135.584 255.303,137.658 254.333,142.048C252.981,148.161 259.439,152.149 266.767,149.725ZM354.499,156.973C347.861,155.546 344.214,151.199 344.214,144.713C344.214,138.314 346.955,134.687 354.02,131.737C358.679,129.791 360.477,129.45 367.592,129.159L375.793,128.824L375.793,125.821C375.793,121.643 374.633,119.476 371.494,117.794C369.175,116.551 367.879,116.396 362.215,116.685C358.594,116.87 354.067,117.503 352.155,118.093L348.677,119.164L347.771,116.308C346.709,112.964 346.854,112.833 353.575,111.03C356.733,110.182 360.836,109.815 367.153,109.814C375.519,109.814 376.493,109.957 380.007,111.709C386.592,114.994 386.861,115.964 387.168,137.562L387.433,156.236L382.913,156.236C378.579,156.236 378.371,156.151 377.861,154.18L377.328,152.125L372.176,154.528C366.597,157.129 359.678,158.086 354.499,156.973L354.499,156.973ZM369.195,149.201C375.404,146.812 375.793,146.267 375.793,139.971L375.793,134.395L369.981,134.853C362.946,135.408 359.372,136.589 357.005,139.142C353.795,142.604 355.092,147.97 359.535,149.608C363.154,150.942 364.856,150.871 369.195,149.201ZM420.23,125.52L420.23,94.107L457.261,94.107L457.261,101.786L444.918,101.786L432.574,101.786L432.574,120.591L452.735,120.983L452.735,128.661L442.655,128.857L432.574,129.053L432.574,148.52L445.123,148.713L457.673,148.906L457.92,152.92L458.167,156.934L439.199,156.934L420.231,156.934L420.23,125.52ZM472.074,125.52L472.074,94.107L509.105,94.107L509.105,101.786L496.761,101.786L484.417,101.786L484.417,120.591L504.579,120.983L504.579,128.661L494.498,128.857L484.417,129.053L484.417,148.52L509.516,148.906L509.763,152.92L510.01,156.934L491.042,156.934L472.074,156.934L472.074,125.52ZM309.518,155.363C308.536,153.169 293.502,111.315 293.502,110.774C293.502,110.438 296.192,110.163 299.478,110.163L305.455,110.163L310.567,124.299C313.379,132.073 316.123,140.084 316.665,142.1C317.206,144.115 317.894,145.764 318.193,145.764C319.474,145.764 325.968,125.535 328.11,114.875L329.056,110.163L334.732,110.163C339.43,110.163 340.408,110.359 340.408,111.3C340.408,116.471 331.539,142.265 326.578,151.524L324.053,156.236L316.981,156.236C312.08,156.236 309.789,155.968 309.518,155.363ZM111.609,151.055C97.089,148.466 93.471,143.314 104.233,140.551C105.915,140.119 106.103,140.19 105.262,140.939C104.696,141.443 104.233,142.076 104.233,142.345C104.233,144.61 126.54,145.812 138.349,144.184L145.72,143.168L150.626,145.137L155.533,147.105L153.13,147.892C142.304,151.44 122.308,152.963 111.609,151.055ZM109.582,135.562C93.403,133.511 88.443,129.847 96.895,126.189C100.84,124.482 100.791,124.477 100.334,126.506C99.694,129.344 102.377,129.93 117.584,130.274C127.81,130.505 133.882,130.279 141.214,129.394L151.081,128.204L154.478,129.922C156.346,130.867 157.553,131.809 157.159,132.016C156.766,132.222 152.381,133.073 147.414,133.907C138.683,135.374 115.944,136.369 109.582,135.562ZM168.831,132.189C178.01,127.42 184.055,121.188 184.055,116.497C184.055,111.918 176.394,107.427 170.873,108.77C167.597,109.567 167.717,108.413 171.011,107.439C177.343,105.566 184.676,107.051 188.591,110.998C190.989,113.416 191.411,118.738 189.457,121.942C186.694,126.476 174.488,133.133 166.774,134.314C164.107,134.723 164.259,134.565 168.831,132.189ZM96.827,120.164C85.518,119.199 79.546,117.667 79.546,115.73C79.546,113.458 97.674,108.02 104.982,108.101C107.514,108.129 107.037,108.379 101.638,109.854C94.723,111.743 90.96,113.804 92.303,114.966C95.352,117.608 126.435,117.652 149.904,115.048C156.693,114.295 162.618,113.688 163.071,113.699C165.852,113.764 155.154,117.241 149.419,118.136C135.796,120.261 109.736,121.266 96.827,120.164L96.827,120.164ZM135.257,111.384C139.099,107.806 139.968,102.924 137.351,99.63C136.561,98.637 134.697,96.281 133.207,94.395C131.718,92.509 129.933,89.316 129.24,87.301C128.095,83.969 128.104,83.271 129.34,79.622C131.875,72.138 143.319,64.692 160.099,59.609C163.443,58.596 166.321,57.888 166.495,58.036C166.669,58.183 163.468,60.101 159.383,62.299C143.981,70.581 138.158,76.088 139.022,81.553C139.279,83.182 141.005,86.264 143.292,89.183C145.403,91.877 147.476,95.104 147.899,96.355C149.368,100.699 145.883,106.203 138.921,110.537C134.522,113.275 132.799,113.674 135.257,111.384L135.257,111.384ZM119.308,100.178C109.673,91.741 106.682,87.688 106.064,82.234C105.371,76.115 109.178,71.731 123.815,61.788C135.003,54.189 141.059,48.816 143.778,44.077C145.359,41.321 145.713,39.587 145.714,34.596C145.714,31.237 145.841,28.488 145.996,28.488C146.151,28.488 147.182,30.137 148.288,32.153C150.743,36.626 150.891,41.095 148.756,46.249C145.947,53.028 141.235,57.843 126.62,68.864C117.257,75.925 114.192,81.343 115.85,87.902C116.376,89.982 118.901,94.052 122.796,99.096C128.356,106.297 129.505,108.068 128.619,108.068C128.454,108.068 124.264,104.518 119.308,100.178L119.308,100.178ZM516.511,98.644C516.511,96.317 516.191,95.503 515.277,95.503C514.598,95.503 514.042,95.189 514.042,94.805C514.042,94.421 515.709,94.107 517.745,94.107C519.782,94.107 521.448,94.421 521.448,94.805C521.448,95.189 520.893,95.503 520.214,95.503C519.3,95.503 518.98,96.317 518.98,98.644C518.98,100.971 518.66,101.786 517.745,101.786C516.831,101.786 516.511,100.971 516.511,98.644ZM523.094,97.946C523.094,94.715 523.329,94.107 524.575,94.107C525.535,94.107 526.455,95.027 527.193,96.725L528.331,99.342L529.527,96.725C530.316,94.999 531.246,94.107 532.258,94.107C533.569,94.107 533.792,94.665 533.792,97.946C533.792,100.894 533.505,101.786 532.558,101.786C531.731,101.786 531.296,101.037 531.239,99.517L531.155,97.248L530.297,99.517C529.826,100.765 528.974,101.786 528.405,101.786C527.836,101.786 526.894,100.765 526.314,99.517L525.257,97.248L524.947,99.517C524.438,103.231 523.094,102.091 523.094,97.946L523.094,97.946Z" style="fill:rgb(204,204,204);fill-rule:nonzero;"/>
    </g>
</svg>
